Categories:Multimedia,Internet
License:GPL-3.0
Web Site:http://www.radio-browser.info
Source Code:https://github.com/segler-alex/RadioDroid
Issue Tracker:https://github.com/segler-alex/RadioDroid/issues
Changelog:https://github.com/segler-alex/RadioDroid/releases

Auto Name:RadioDroid
Summary:Browse and stream internet radios
Description:
Look up online radio streams at [http://www.radio-browser.info RadioBrowser] and
listen to them. RadioBrowser is a wiki like aproach to collect as much online
radio stations as possible. Every one can help by not only adding new stations
but also tagging existing ones.
.

Repo Type:git
Repo:https://github.com/segler-alex/RadioDroid

Build:0.4,4
    commit=0.4
    subdir=app
    gradle=yes

Build:0.6,6
    commit=0.6
    subdir=app
    gradle=yes

Build:0.7,7
    commit=0.7
    subdir=app
    gradle=yes

Build:0.8,8
    commit=0.8
    subdir=app
    gradle=yes

Build:0.9,9
    commit=0.9
    subdir=app
    gradle=yes

Build:0.9.1,10
    commit=0.9.1
    subdir=app
    gradle=yes

Build:0.10.1,12
    commit=0.10.1
    subdir=app
    gradle=yes

Build:0.11,13
    commit=0.11
    subdir=app
    gradle=yes

Build:0.12,14
    commit=0.12
    subdir=app
    gradle=yes

Build:0.12.1,15
    commit=0.12.1
    subdir=app
    gradle=yes

Build:0.13,16
    commit=0.13
    subdir=app
    gradle=yes

Build:0.14,17
    commit=0.14
    subdir=app
    gradle=yes

Build:0.14.1,18
    commit=0.14.1
    subdir=app
    gradle=yes

Build:0.14.2,19
    commit=0.14.2
    subdir=app
    gradle=yes

Build:0.14.3,20
    commit=0.14.3
    subdir=app
    gradle=yes

Build:0.14.5,22
    commit=0.14.5
    subdir=app
    gradle=yes

Build:0.14.6,23
    commit=0.14.6
    subdir=app
    gradle=yes

Build:0.15,24
    commit=0.15
    subdir=app
    gradle=yes

Build:0.16,25
    commit=0.16
    subdir=app
    gradle=yes

Build:0.17,26
    commit=0.17
    subdir=app
    gradle=yes

Build:0.18,27
    commit=0.18
    subdir=app
    gradle=yes

Build:0.19,28
    commit=0.19
    subdir=app
    gradle=yes

Build:0.20,29
    commit=0.20
    subdir=app
    gradle=yes

Build:0.21,30
    commit=0.21
    subdir=app
    gradle=yes

Build:0.22,31
    commit=0.22
    subdir=app
    gradle=yes

Build:0.23,32
    commit=0.23
    subdir=app
    gradle=yes

Build:0.23.1,33
    commit=0.23.1
    subdir=app
    gradle=yes

Build:0.24,34
    commit=0.24
    subdir=app
    gradle=yes

Build:0.25,35
    commit=0.25
    subdir=app
    gradle=yes

Build:0.26,36
    commit=0.26
    subdir=app
    gradle=yes

Build:0.27,37
    commit=0.27
    subdir=app
    gradle=yes

Build:0.28,38
    commit=0.28
    subdir=app
    gradle=yes

Build:0.29,39
    commit=0.29
    subdir=app
    gradle=yes

Build:0.31,41
    commit=0.31
    subdir=app
    gradle=yes

Build:0.36,46
    disable=includes proprietary Google Play Services Cast libs
    commit=0.36
    subdir=app
    gradle=yes

Build:0.37,47
    commit=0.37
    subdir=app
    gradle=free
    prebuild=sed -i -e '/playCompile/d' build.gradle

Build:0.46,56
    disable=Could not find com.android.tools.build:gradle:3.0.1
    commit=0.46
    subdir=app
    gradle=free
    prebuild=sed -i -e '/playCompile/d' build.gradle

Build:0.48,58
    commit=0.48
    subdir=app
    gradle=free
    prebuild=sed -i -e '/playCompile/d' build.gradle

Build:0.51,61
    commit=0.51
    subdir=app
    gradle=free
    prebuild=sed -i -e '/playCompile/d' build.gradle

Build:0.53,63
    commit=0.53
    subdir=app
    gradle=free
    prebuild=sed -i -e '/playCompile/d' build.gradle

Build:0.55,65
    commit=0.55
    subdir=app
    gradle=free
    prebuild=sed -i -e '/playCompile/d' build.gradle

Auto Update Mode:Version %v
Update Check Mode:Tags
Current Version:0.55
Current Version Code:65
